<svg xmlns="http://www.w3.org/2000/svg" viewBox="0 0 611.84 144">
  <defs>
    <style>
      .cls-1 {
        fill: #e00;
      }
    </style>
  </defs>
  <title>Asset 2</title>
  <g id="Layer_2" data-name="Layer 2">
    <g id="Layer_1-2" data-name="Layer 1">
      <path class="cls-1" d="M127,83c12.51,0,30.61-2.58,30.61-17.46a14,14,0,0,0-.31-3.42l-7.45-32.36c-1.72-7.12-3.23-10.35-15.73-16.6C124.39,8.19,103.26,0,97,0,91.19,0,89.5,7.5,82.56,7.5c-6.68,0-11.64-5.6-17.89-5.6-6,0-9.91,4.09-12.93,12.5,0,0-8.41,23.72-9.49,27.16A6.36,6.36,0,0,0,42,43.5C42,52.72,78.33,83,127,83M159.5,71.57c1.73,8.19,1.73,9.05,1.73,10.13,0,14-15.74,21.77-36.43,21.77C78,103.5,37.08,76.1,37.08,58a18.46,18.46,0,0,1,1.51-7.33C21.77,51.5,0,54.5,0,73.72,0,105.2,74.59,144,133.65,144c45.28,0,56.7-20.48,56.7-36.65,0-12.72-11-27.16-30.83-35.78"/>
      <path d="M159.5,71.57c1.73,8.19,1.73,9.05,1.73,10.13,0,14-15.74,21.77-36.43,21.77C78,103.5,37.08,76.1,37.08,58a18.46,18.46,0,0,1,1.51-7.33l3.66-9.06A6.42,6.42,0,0,0,42,43.5C42,52.72,78.33,83,127,83c12.51,0,30.61-2.58,30.61-17.46a14,14,0,0,0-.31-3.42Z"/>
      <path d="M579.24,92.3c0,11.89,7.15,17.67,20.19,17.67a52,52,0,0,0,11.89-1.68V94.5a24.71,24.71,0,0,1-7.68,1.16c-5.37,0-7.36-1.68-7.36-6.73V67.8h15.56V53.6H596.28v-18l-17,3.68V53.6H568V67.8h11.25Zm-53,.32c0-3.68,3.69-5.47,9.26-5.47a43,43,0,0,1,10.1,1.26v7.15A21.46,21.46,0,0,1,535,98.19c-5.46,0-8.73-2.1-8.73-5.57m5.2,17.56c6,0,10.84-1.26,15.36-4.31v3.37h16.82V73.58c0-13.56-9.14-21-24.39-21-8.52,0-16.94,2-26,6.1l6.1,12.52c6.52-2.74,12-4.42,16.83-4.42,7,0,10.62,2.73,10.62,8.31v2.73a49.27,49.27,0,0,0-12.62-1.58c-14.31,0-22.93,6-22.93,16.73,0,9.78,7.78,17.24,20.19,17.24M439,109.27h18.09V80.42h30.29v28.82H505.5V35.62H487.43V63.91H457.14V35.62H439.05Zm-68.86-27.9c0-8,6.31-14.1,14.62-14.1a17.2,17.2,0,0,1,11.76,4.32V91a16.37,16.37,0,0,1-11.76,4.46c-8.2,0-14.62-6.1-14.62-14.09m26.61,27.87h16.83V31.94l-17,3.68V56.55a28.38,28.38,0,0,0-14.2-3.68c-16.19,0-28.92,12.51-28.92,28.5a28.26,28.26,0,0,0,27.9,28.6h.5a25.11,25.11,0,0,0,14.93-4.83ZM319.5,66.5c5.36,0,9.88,3.47,11.67,8.83H308c1.68-5.53,5.89-8.83,11.53-8.83m-28.67,15c0,16.2,13.25,28.82,30.28,28.82,9.36,0,16.2-2.53,23.25-8.42l-11.26-10c-2.63,2.74-6.52,4.21-11.14,4.21a14.38,14.38,0,0,1-13.68-8.83h39.65V83.05c0-17.67-11.88-30.39-28.08-30.39a28.57,28.57,0,0,0-29,28.14v.67M261.5,51.08c6,0,9.36,3.78,9.36,8.31s-3.36,8.31-9.36,8.31H243.61V51.08Zm-36,58.16h18.09V82.42h13.77l13.89,26.82H291.5L275.3,79.79a22.28,22.28,0,0,0,13.88-20.72c0-13.25-10.41-23.45-26-23.45H225.5Z"/>
    </g>
  </g>
</svg>
